<svg width="729" height="412" viewBox="0 0 729 412" fill="none" xmlns="http://www.w3.org/2000/svg">
<path d="M105.766 227.361L113.47 229.672L121.944 218.117L124.255 208.872L134.27 203.48L137.352 195.776L124.255 184.22L116.552 181.909L110.389 189.613L100.374 185.761L93.4404 201.168L94.9811 206.561L88.8181 211.954L81.8848 214.265V221.198L84.1959 228.132L105.766 227.361Z" fill="#212932" fill-opacity="0.2"/>
<path d="M147.365 191.924L141.202 198.857L154.298 202.709L148.906 208.872L154.298 218.887L148.135 227.361L144.283 223.509L131.957 227.361L137.35 231.213L121.943 237.376L121.172 242.769L128.106 246.62L135.039 255.095L106.535 261.258L109.617 265.88L116.55 263.569L124.254 266.65L128.106 265.109L134.269 265.88L137.35 268.191L147.365 269.732L165.083 276.665L174.328 272.813V268.961L169.706 265.88L177.409 261.258L182.802 258.176L184.343 250.472L172.017 244.309L175.098 238.917L169.706 231.213H175.869V221.969L169.706 215.806L170.476 197.317L159.691 187.302L173.558 181.909L178.18 174.976L178.95 168.042L165.083 164.191V161.109L171.246 159.568L179.721 153.405L165.083 147.242L151.217 159.568L145.054 180.368L138.891 189.613L147.365 186.531V191.924Z" fill="#212932" fill-opacity="0.2"/>
<path d="M156.619 145.701L154.308 143.39L147.375 145.701L145.834 150.324L156.619 148.783V145.701Z" fill="#212932" fill-opacity="0.2"/>
<path d="M347.658 206.562L343.806 204.251L339.184 211.184V215.807V220.429L348.428 212.725L347.658 206.562Z" fill="#212932" fill-opacity="0.2"/>
<path d="M379.244 193.466L380.785 191.925L376.162 188.844L372.311 190.384L373.081 191.925L376.162 194.236L379.244 193.466Z" fill="#212932" fill-opacity="0.2"/>
<path d="M372.311 201.169L376.162 202.709L382.325 198.858V195.776L376.162 197.317L372.311 198.858V201.169Z" fill="#212932" fill-opacity="0.2"/>
<path d="M522.541 19.3606H527.163L530.245 10.8865V7.03467H524.852L517.148 8.5754L522.541 19.3606Z" fill="#212932" fill-opacity="0.2"/>
<path d="M725.919 217.347L710.511 211.954L691.252 201.169L686.63 183.45L675.844 184.991L670.452 195.006L652.733 183.45L659.667 173.436L664.289 163.421L652.733 154.176V135.687L628.852 65.5835L613.444 44.7834L625.77 6.26477L623.459 -9.14268L611.903 -29.1724L583.4 -27.6316L577.237 -22.239L574.155 -18.3872L583.4 -11.4538V0.101801L579.548 0.87216L574.926 -6.83156L565.681 4.72402L560.289 6.26477L559.518 14.7389L551.044 17.05V5.4944L544.881 13.9685L532.555 31.6871L527.162 40.9315L529.474 49.4056L524.851 52.4871L511.755 44.7834L512.525 38.6204L521.77 35.5389L513.296 27.0648H499.429L507.133 47.8649L511.755 52.4871L512.525 64.8131L504.051 60.9612L500.97 61.7316L490.185 78.6798L497.118 91.7761L488.644 92.5465L474.007 87.9242L470.925 94.0872L483.251 102.561L481.71 104.872L466.303 101.021L459.37 98.7095L455.518 79.4502L440.11 63.2723L455.518 69.4353L477.859 74.0575L488.644 69.4353L493.266 59.4205V54.0279L487.103 44.013L474.777 40.1612L453.977 28.6056L440.881 30.1463L432.407 24.7537L417.77 20.1315L427.014 13.9685L413.918 6.26477L403.903 15.5093L396.969 13.1981V18.5907L388.495 15.5093L387.725 20.9018L380.021 17.8204L381.562 23.9833L370.006 23.213L370.777 28.6056L360.762 29.3759L357.68 35.5389L352.288 37.0797V41.7019L347.666 44.7834L346.125 49.4056L339.962 50.176L336.11 58.6501H330.717L328.406 65.5835H324.554L322.243 71.7464L319.162 77.9094L317.621 84.8428L312.999 92.5465L306.066 95.628L305.295 98.7095L299.132 101.021L292.199 109.495L290.658 110.265H282.954L276.791 114.887H272.169L266.006 120.28L259.843 121.821L255.221 123.361L252.91 129.524L254.451 133.376L249.058 137.228L255.221 140.31L249.828 148.784V154.947L250.599 158.799L245.976 160.339L246.747 163.421L244.436 169.584L245.206 176.517L252.91 183.45L257.532 184.991L270.628 178.828L278.332 177.287L286.036 171.124L289.117 176.517L286.806 191.154L288.347 195.006L289.117 204.251L294.51 213.495L293.74 219.658L292.969 221.199L290.658 224.28L293.74 236.606L304.525 237.376L309.147 228.902H319.162L324.554 219.658L326.095 206.562L333.029 191.925L339.192 188.843V182.68L349.977 178.058V173.436L339.192 158.028L339.962 148.784L349.977 128.754L361.532 117.969L370.777 112.576L373.858 106.413L373.088 97.1687L380.021 84.8428H390.806L397.74 88.6946L398.51 98.7095L389.266 106.413L383.873 117.198L373.088 125.673L367.695 137.228L370.777 147.243L367.695 152.636L369.236 161.88L375.399 166.502L380.021 171.895L387.725 173.436L403.132 165.732L417.77 164.961L427.014 168.043L436.258 173.436L425.473 174.976L422.392 178.058L419.31 181.91L403.903 180.369L398.51 184.221L387.725 184.991L384.644 188.073L383.873 192.695L385.414 199.628L394.658 203.48L392.347 213.495L386.184 223.51L376.94 210.413L368.466 211.954L361.532 221.969V235.836V246.621L353.058 251.243L346.895 258.947H340.732L334.569 252.014L319.162 254.325L314.54 258.177L299.903 261.258L289.888 255.095L288.347 249.702L267.547 255.865L269.858 248.932L259.843 244.31V238.917L263.695 226.591L269.858 219.658L274.48 205.791L276.021 199.628L267.547 200.399L259.073 203.48L251.369 212.725L249.828 222.739L251.369 248.162L250.599 252.784L249.058 258.947L241.354 252.784L234.421 254.325H225.176L214.391 259.717L208.228 264.34L201.295 272.814L199.754 278.206L175.102 279.747L172.791 287.451L165.087 288.221L157.384 291.303L155.843 294.384L144.287 293.614L138.124 283.599L136.584 288.221L135.813 297.466L125.798 296.695L120.406 292.073L104.998 288.991L103.458 293.614L106.539 299.006L114.243 304.399L120.406 315.955L118.865 325.969L127.339 335.214L108.08 376.044L55.6945 349.081L49.5315 340.606L43.3685 343.688L34.1241 342.147L30.2722 346.769L33.3537 358.325L25.65 376.814L12.5536 392.221H8.70177L4.84991 400.695L9.47214 406.088L7.9314 417.644L0.998047 426.118L7.16103 427.658L11.0129 433.051L26.4203 437.673L27.1907 451.54L31.0426 457.703L47.9908 453.851L68.0204 463.866L89.5909 456.933L107.309 447.688L104.998 432.281L123.487 422.266V418.414L148.91 415.333L154.302 406.858V399.155L167.398 392.221L188.199 406.858L201.295 401.466L219.784 395.303L231.339 401.466L236.732 419.955L249.828 439.214L259.843 450.77L267.547 452.31L277.562 463.096L281.414 470.799L287.577 474.651L292.969 490.829L285.265 499.303L284.495 502.385L287.577 503.925L296.821 497.762L298.362 493.14L306.066 490.829V485.436L297.591 478.503L302.984 466.948L314.54 473.11L318.392 480.814L319.932 476.192L314.54 467.718L292.199 451.54L294.51 449.229L272.94 429.199L271.399 417.644L255.991 399.925L259.843 393.762L258.302 387.599L272.94 383.747L275.251 399.925L281.414 391.451L291.428 409.94L296.051 422.266L316.08 436.133L331.488 450.77V472.34L344.584 495.451L349.977 503.925L368.466 506.237L372.318 510.088H378.481L384.644 517.792L386.184 506.237L372.318 496.992C372.318 496.992 372.318 492.37 372.318 490.829C372.318 489.288 369.236 472.34 369.236 472.34L380.792 477.733L388.495 469.259L406.984 466.948L415.458 470.799L433.947 462.325H442.421L444.733 460.014L426.244 445.377L430.866 429.97L438.57 420.725L441.651 408.399L448.584 399.925V392.992L466.303 379.125L478.629 377.584L473.236 384.518L476.318 386.058L486.333 383.747L490.185 386.058L480.17 396.844L490.185 399.925L492.496 408.399H500.97L512.525 396.073H521.77L522.54 389.14L510.985 391.451L504.051 382.207L504.822 377.584L526.392 366.799L545.651 356.784L547.192 359.095L538.718 369.11H532.555L537.948 374.503L534.096 381.436L534.866 387.599L525.622 390.681V393.762L534.866 399.155L568.763 413.021L580.318 416.873L585.711 423.807L611.133 423.036L625 424.577L635.015 429.97L644.259 433.822H657.355L677.385 439.214L684.318 423.036L652.733 401.466L641.178 383.747L630.392 375.273L635.785 356.014L650.422 336.755L666.6 321.347L661.978 312.873L656.585 295.925L641.178 277.436L638.866 260.488L661.978 245.851L694.333 237.376L702.807 235.065L708.2 238.917H715.904L720.526 230.443L729 225.051L725.919 217.347ZM456.288 165.732L447.044 170.354L445.503 173.436L442.421 171.124L438.57 161.88L434.718 154.947V150.324L438.57 147.243L452.436 155.717L455.518 162.65V165.732H456.288ZM477.859 152.636L467.844 144.932L461.681 135.687H467.073L469.384 132.606L463.992 126.443L473.236 129.524L474.007 138.769L481.71 149.554L477.859 152.636ZM507.133 194.236L491.725 187.302V180.369L500.97 183.45L496.348 177.287L504.051 180.369L509.444 185.762L511.755 189.613L507.133 194.236ZM550.274 204.251H545.651L543.34 200.399L541.029 193.465L544.881 189.613V191.154V196.547L548.733 200.399V204.251H550.274ZM574.926 342.918C574.926 342.918 574.926 339.836 574.926 339.066C574.926 338.295 576.466 332.132 576.466 332.132L580.318 327.51L583.4 321.347V327.51C583.4 327.51 583.4 332.132 583.4 333.673C583.4 335.214 583.4 336.755 583.4 337.525C583.4 338.295 584.94 343.688 584.94 343.688H574.926V342.918ZM598.807 283.599V289.762V293.614L597.266 299.006L594.955 306.71L597.266 313.643L594.955 327.51L591.103 320.577V309.792L594.955 296.695V285.91L591.103 277.436L599.577 265.88L595.726 280.517L598.807 283.599ZM611.133 260.488L606.511 262.799L608.822 256.636L611.133 257.406V260.488ZM621.148 200.399L615.755 204.251L609.592 206.562L604.2 214.265L603.429 225.821L605.74 228.132L608.052 227.362L611.903 223.51L610.363 234.295L618.837 235.065L613.444 238.917L608.822 238.147L604.97 232.754L601.889 227.362H599.577V221.969L600.348 216.576L601.889 211.954V208.102L606.511 204.251L616.526 199.628L619.607 197.317V200.399H621.148Z" fill="#212932" fill-opacity="0.2"/>
</svg>
