<?xml version="1.0" encoding="UTF-8" standalone="no"?>
<!-- Generator: Adobe Illustrator 16.0.0, SVG Export Plug-In . SVG Version: 6.00 Build 0)  -->

<svg
   xmlns:dc="http://purl.org/dc/elements/1.1/"
   xmlns:cc="http://creativecommons.org/ns#"
   xmlns:rdf="http://www.w3.org/1999/02/22-rdf-syntax-ns#"
   xmlns:svg="http://www.w3.org/2000/svg"
   xmlns="http://www.w3.org/2000/svg"
   xmlns:sodipodi="http://sodipodi.sourceforge.net/DTD/sodipodi-0.dtd"
   xmlns:inkscape="http://www.inkscape.org/namespaces/inkscape"
   version="1.1"
   id="Layer_1"
   x="0px"
   y="0px"
   width="41"
   height="30"
   viewBox="0 0 40.999998 29.999999"
   enable-background="new 0 0 595.275 841.89"
   xml:space="preserve"
   sodipodi:docname="Tilde_logo_balts.svg"
   inkscape:version="0.92.2 (5c3e80d, 2017-08-06)"><metadata
     id="metadata30"><rdf:RDF><cc:Work
         rdf:about=""><dc:format>image/svg+xml</dc:format><dc:type
           rdf:resource="http://purl.org/dc/dcmitype/StillImage" /><dc:title></dc:title></cc:Work></rdf:RDF></metadata><defs
     id="defs28" /><sodipodi:namedview
     pagecolor="#ffffff"
     bordercolor="#666666"
     borderopacity="1"
     objecttolerance="10"
     gridtolerance="10"
     guidetolerance="10"
     inkscape:pageopacity="0"
     inkscape:pageshadow="2"
     inkscape:window-width="1920"
     inkscape:window-height="1027"
     id="namedview26"
     showgrid="false"
     inkscape:zoom="4.09"
     inkscape:cx="161.56724"
     inkscape:cy="4.3129584"
     inkscape:window-x="-8"
     inkscape:window-y="-8"
     inkscape:window-maximized="1"
     inkscape:current-layer="Layer_1" /><g
     id="g23"
     transform="translate(-276.81777,-416.30661)"><path
       d="m 305.71,431.051 h -3.267 v -13.975 h 3.267 c 1.72,0 3.27,0.676 3.27,2.563 v 8.877 c -0.001,1.859 -1.55,2.535 -3.27,2.535 z m -11.323,0 v -13.975 h 2.761 v 11.976 h 2.45 v 1.999 z m -0.787,10.534 c -6.818,-3.297 -14.395,-3.352 -14.395,3.66 h -2.112 c -0.338,-9.831 9.408,-15.265 20.364,-9.971 16.028,7.746 18.731,2.395 18.731,-4.027 v -0.169 l -3.351,-0.027 v -13.975 h 5.185 v 1.999 h -2.424 v 3.214 h 2.311 v 2 h -2.311 v 4.763 h 2.534 v 3.067 c 10e-4,11.522 -8.111,17.437 -24.532,9.466 z m -6.029,-10.534 v -13.975 h 2.789 v 13.975 z m -5.126,-11.976 v 11.976 h -2.761 v -11.976 h -1.886 v -1.999 h 6.507 v 1.999 z m 23.745,0.93 c 0,-0.395 -0.056,-0.931 -0.48,-0.931 h -0.476 v 9.977 h 0.476 c 0.425,0 0.48,-0.536 0.48,-0.902 z"
       id="path21"
       inkscape:connector-curvature="0"
       style="fill:#ffffff" /></g></svg>